{
  "$schema": "https://docs.renovatebot.com/renovate-schema.json",
  "extends": [
    "@koober/renovate-config:library",
    "@koober/renovate-config:teamAssignees"
  ],
  "ignorePaths": [
    "**/node_modules/**"
  ]
}
